{
  "project_info": {
    "project_number": "960712107629",
    "firebase_url": "https://susanin-6e04b.firebaseio.com",
    "project_id": "susanin-6e04b",
    "storage_bucket": "susanin-6e04b.appspot.com"
  },
  "client": [
    {
      "client_info": {
        "mobilesdk_app_id": "1:960712107629:android:5d925397aabd5fbf",
        "android_client_info": {
          "package_name": "team.susanin.susanin"
        }
      },
      "oauth_client": [
        {
          "client_id": "960712107629-pcq5bf1hib738i1t5ilf6j3g0l1bdsn3.apps.googleusercontent.com",
          "client_type": 1,
          "android_info": {
            "package_name": "team.susanin.susanin",
            "certificate_hash": "aabddbe123559e1c55c06334794d840379a74ed2"
          }
        }
      ],
      "api_key": [
        {
          "current_key": "AIzaSyCS_8kgstYKpepTngwARq13NQnrgqw0Bic"
        }
      ],
      "services": {
        "appinvite_service": {
          "other_platform_oauth_client": [
            {
              "client_id": "960712107629-njud1vu317iv1cbcj667rphfchmbl8ra.apps.googleusercontent.com",
              "client_type": 3
            }
          ]
        }
      }
    }
  ],
  "configuration_version": "1"
}